info face=Arial,Normal size=20 bold=0 italic=0 charset="" unicode=1 stretchH=100 smooth=0 aa=1 padding=0,0,0,0 spacing=1,1
common lineHeight=24 base=19 scaleW=256 scaleH=256 pages=1 packed=0
page id=0 file=Arial_20_00.png
chars count=191
char id=32 x=206 y=151 width=1 height=1 xoffset=-1 yoffset=18 xadvance=6 page=0 chnl=0
char id=33 x=252 y=129 width=4 height=16 xoffset=0 yoffset=3 xadvance=6 page=0 chnl=0
char id=34 x=171 y=144 width=8 height=7 xoffset=-1 yoffset=3 xadvance=7 page=0 chnl=0
char id=35 x=215 y=60 width=12 height=17 xoffset=-1 yoffset=3 xadvance=11 page=0 chnl=0
char id=36 x=230 y=21 width=12 height=20 xoffset=-1 yoffset=2 xadvance=11 page=0 chnl=0
char id=37 x=79 y=42 width=17 height=17 xoffset=0 yoffset=3 xadvance=18 page=0 chnl=0
char id=38 x=233 y=42 width=14 height=17 xoffset=-1 yoffset=3 xadvance=13 page=0 chnl=0
char id=39 x=195 y=144 width=4 height=7 xoffset=-1 yoffset=3 xadvance=4 page=0 chnl=0
char id=40 x=91 y=0 width=6 height=21 xoffset=0 yoffset=3 xadvance=7 page=0 chnl=0
char id=41 x=98 y=0 width=6 height=21 xoffset=0 yoffset=3 xadvance=7 page=0 chnl=0
char id=42 x=161 y=144 width=9 height=8 xoffset=-1 yoffset=3 xadvance=8 page=0 chnl=0
char id=43 x=0 y=144 width=11 height=11 xoffset=0 yoffset=6 xadvance=12 page=0 chnl=0
char id=44 x=200 y=145 width=4 height=7 xoffset=0 yoffset=15 xadvance=6 page=0 chnl=0
char id=45 x=231 y=147 width=8 height=4 xoffset=-1 yoffset=11 xadvance=7 page=0 chnl=0
char id=46 x=243 y=152 width=4 height=4 xoffset=0 yoffset=15 xadvance=6 page=0 chnl=0
char id=47 x=219 y=78 width=7 height=17 xoffset=-1 yoffset=3 xadvance=6 page=0 chnl=0
char id=48 x=202 y=60 width=12 height=17 xoffset=-1 yoffset=3 xadvance=11 page=0 chnl=0
char id=49 x=217 y=113 width=7 height=16 xoffset=1 yoffset=3 xadvance=11 page=0 chnl=0
char id=50 x=42 y=115 width=12 height=16 xoffset=-1 yoffset=3 xadvance=11 page=0 chnl=0
char id=51 x=189 y=60 width=12 height=17 xoffset=-1 yoffset=3 xadvance=11 page=0 chnl=0
char id=52 x=55 y=115 width=12 height=16 xoffset=-1 yoffset=3 xadvance=11 page=0 chnl=0
char id=53 x=176 y=60 width=12 height=17 xoffset=-1 yoffset=3 xadvance=11 page=0 chnl=0
char id=54 x=163 y=60 width=12 height=17 xoffset=-1 yoffset=3 xadvance=11 page=0 chnl=0
char id=55 x=68 y=114 width=12 height=16 xoffset=-1 yoffset=3 xadvance=11 page=0 chnl=0
char id=56 x=150 y=59 width=12 height=17 xoffset=-1 yoffset=3 xadvance=11 page=0 chnl=0
char id=57 x=137 y=59 width=12 height=17 xoffset=-1 yoffset=3 xadvance=11 page=0 chnl=0
char id=58 x=15 y=132 width=4 height=12 xoffset=0 yoffset=7 xadvance=6 page=0 chnl=0
char id=59 x=227 y=130 width=4 height=15 xoffset=0 yoffset=7 xadvance=6 page=0 chnl=0
char id=60 x=12 y=145 width=11 height=11 xoffset=0 yoffset=6 xadvance=12 page=0 chnl=0
char id=61 x=137 y=144 width=11 height=8 xoffset=0 yoffset=7 xadvance=12 page=0 chnl=0
char id=62 x=24 y=145 width=11 height=11 xoffset=0 yoffset=6 xadvance=12 page=0 chnl=0
char id=63 x=81 y=113 width=12 height=16 xoffset=-1 yoffset=3 xadvance=11 page=0 chnl=0
char id=64 x=0 y=0 width=20 height=21 xoffset=0 yoffset=3 xadvance=20 page=0 chnl=0
char id=65 x=219 y=96 width=16 height=16 xoffset=-2 yoffset=3 xadvance=13 page=0 chnl=0
char id=66 x=62 y=97 width=13 height=16 xoffset=0 yoffset=3 xadvance=13 page=0 chnl=0
char id=67 x=201 y=42 width=15 height=17 xoffset=-1 yoffset=3 xadvance=14 page=0 chnl=0
char id=68 x=106 y=96 width=14 height=16 xoffset=0 yoffset=3 xadvance=14 page=0 chnl=0
char id=69 x=48 y=98 width=13 height=16 xoffset=0 yoffset=3 xadvance=13 page=0 chnl=0
char id=70 x=94 y=113 width=12 height=16 xoffset=0 yoffset=3 xadvance=12 page=0 chnl=0
char id=71 x=217 y=42 width=15 height=17 xoffset=0 yoffset=3 xadvance=16 page=0 chnl=0
char id=72 x=34 y=98 width=13 height=16 xoffset=0 yoffset=3 xadvance=14 page=0 chnl=0
char id=73 x=247 y=129 width=4 height=16 xoffset=0 yoffset=3 xadvance=6 page=0 chnl=0
char id=74 x=164 y=78 width=10 height=17 xoffset=-1 yoffset=3 xadvance=10 page=0 chnl=0
char id=75 x=91 y=96 width=14 height=16 xoffset=0 yoffset=3 xadvance=13 page=0 chnl=0
char id=76 x=107 y=113 width=11 height=16 xoffset=0 yoffset=3 xadvance=11 page=0 chnl=0
char id=77 x=202 y=96 width=16 height=16 xoffset=0 yoffset=3 xadvance=17 page=0 chnl=0
char id=78 x=20 y=98 width=13 height=16 xoffset=0 yoffset=3 xadvance=14 page=0 chnl=0
char id=79 x=133 y=41 width=16 height=17 xoffset=-1 yoffset=3 xadvance=16 page=0 chnl=0
char id=80 x=6 y=98 width=13 height=16 xoffset=0 yoffset=3 xadvance=13 page=0 chnl=0
char id=81 x=43 y=42 width=16 height=18 xoffset=-1 yoffset=3 xadvance=16 page=0 chnl=0
char id=82 x=169 y=96 width=15 height=16 xoffset=0 yoffset=3 xadvance=14 page=0 chnl=0
char id=83 x=242 y=60 width=14 height=17 xoffset=-1 yoffset=3 xadvance=13 page=0 chnl=0
char id=84 x=0 y=115 width=13 height=16 xoffset=-1 yoffset=3 xadvance=12 page=0 chnl=0
char id=85 x=228 y=60 width=13 height=17 xoffset=0 yoffset=3 xadvance=14 page=0 chnl=0
char id=86 x=153 y=96 width=15 height=16 xoffset=-1 yoffset=3 xadvance=13 page=0 chnl=0
char id=87 x=235 y=78 width=20 height=16 xoffset=-1 yoffset=3 xadvance=19 page=0 chnl=0
char id=88 x=137 y=96 width=15 height=16 xoffset=-1 yoffset=3 xadvance=13 page=0 chnl=0
char id=89 x=121 y=96 width=15 height=16 xoffset=-1 yoffset=3 xadvance=13 page=0 chnl=0
char id=90 x=14 y=115 width=13 height=16 xoffset=-1 yoffset=3 xadvance=12 page=0 chnl=0
char id=91 x=186 y=21 width=6 height=20 xoffset=0 yoffset=3 xadvance=6 page=0 chnl=0
char id=92 x=227 y=78 width=7 height=17 xoffset=-1 yoffset=3 xadvance=6 page=0 chnl=0
char id=93 x=179 y=21 width=6 height=20 xoffset=-1 yoffset=3 xadvance=6 page=0 chnl=0
char id=94 x=83 y=144 width=10 height=10 xoffset=-1 yoffset=3 xadvance=9 page=0 chnl=0
char id=95 x=223 y=152 width=14 height=3 xoffset=-2 yoffset=20 xadvance=11 page=0 chnl=0
char id=96 x=218 y=145 width=6 height=5 xoffset=-1 yoffset=3 xadvance=7 page=0 chnl=0
char id=97 x=170 y=130 width=12 height=13 xoffset=-1 yoffset=7 xadvance=11 page=0 chnl=0
char id=98 x=104 y=78 width=11 height=17 xoffset=0 yoffset=3 xadvance=11 page=0 chnl=0
char id=99 x=132 y=130 width=11 height=13 xoffset=-1 yoffset=7 xadvance=10 page=0 chnl=0
char id=100 x=116 y=78 width=11 height=17 xoffset=-1 yoffset=3 xadvance=11 page=0 chnl=0
char id=101 x=157 y=130 width=12 height=13 xoffset=-1 yoffset=7 xadvance=11 page=0 chnl=0
char id=102 x=199 y=113 width=8 height=16 xoffset=-1 yoffset=3 xadvance=6 page=0 chnl=0
char id=103 x=128 y=78 width=11 height=17 xoffset=-1 yoffset=7 xadvance=11 page=0 chnl=0
char id=104 x=155 y=113 width=10 height=16 xoffset=0 yoffset=3 xadvance=11 page=0 chnl=0
char id=105 x=242 y=129 width=4 height=16 xoffset=0 yoffset=3 xadvance=4 page=0 chnl=0
char id=106 x=105 y=0 width=6 height=21 xoffset=-2 yoffset=3 xadvance=4 page=0 chnl=0
char id=107 x=166 y=113 width=10 height=16 xoffset=0 yoffset=3 xadvance=10 page=0 chnl=0
char id=108 x=237 y=130 width=4 height=16 xoffset=0 yoffset=3 xadvance=4 page=0 chnl=0
char id=109 x=92 y=130 width=16 height=12 xoffset=0 yoffset=7 xadvance=17 page=0 chnl=0
char id=110 x=28 y=132 width=10 height=12 xoffset=0 yoffset=7 xadvance=11 page=0 chnl=0
char id=111 x=144 y=130 width=12 height=13 xoffset=-1 yoffset=7 xadvance=11 page=0 chnl=0
char id=112 x=119 y=113 width=11 height=16 xoffset=0 yoffset=7 xadvance=11 page=0 chnl=0
char id=113 x=131 y=113 width=11 height=16 xoffset=-1 yoffset=7 xadvance=11 page=0 chnl=0
char id=114 x=20 y=132 width=7 height=12 xoffset=0 yoffset=7 xadvance=7 page=0 chnl=0
char id=115 x=120 y=130 width=11 height=13 xoffset=-1 yoffset=7 xadvance=10 page=0 chnl=0
char id=116 x=225 y=113 width=7 height=16 xoffset=-1 yoffset=4 xadvance=6 page=0 chnl=0
char id=117 x=109 y=130 width=10 height=13 xoffset=0 yoffset=7 xadvance=11 page=0 chnl=0
char id=118 x=63 y=132 width=11 height=12 xoffset=-1 yoffset=7 xadvance=10 page=0 chnl=0
char id=119 x=75 y=131 width=16 height=12 xoffset=-1 yoffset=7 xadvance=14 page=0 chnl=0
char id=120 x=51 y=132 width=11 height=12 xoffset=-1 yoffset=7 xadvance=10 page=0 chnl=0
char id=121 x=140 y=77 width=11 height=17 xoffset=-1 yoffset=7 xadvance=10 page=0 chnl=0
char id=122 x=39 y=132 width=11 height=12 xoffset=-1 yoffset=7 xadvance=10 page=0 chnl=0
char id=123 x=73 y=0 width=8 height=21 xoffset=-1 yoffset=3 xadvance=7 page=0 chnl=0
char id=124 x=112 y=0 width=4 height=21 xoffset=0 yoffset=3 xadvance=5 page=0 chnl=0
char id=125 x=82 y=0 width=8 height=21 xoffset=-1 yoffset=3 xadvance=7 page=0 chnl=0
char id=126 x=205 y=145 width=12 height=5 xoffset=-1 yoffset=9 xadvance=12 page=0 chnl=0
char id=160 x=204 y=145 width=1 height=1 xoffset=-1 yoffset=18 xadvance=6 page=0 chnl=0
char id=161 x=232 y=130 width=4 height=16 xoffset=1 yoffset=7 xadvance=7 page=0 chnl=0
char id=162 x=205 y=21 width=11 height=20 xoffset=0 yoffset=3 xadvance=11 page=0 chnl=0
char id=163 x=124 y=60 width=12 height=17 xoffset=-1 yoffset=3 xadvance=11 page=0 chnl=0
char id=164 x=2 y=132 width=12 height=11 xoffset=-1 yoffset=6 xadvance=11 page=0 chnl=0
char id=165 x=76 y=96 width=14 height=16 xoffset=-2 yoffset=3 xadvance=11 page=0 chnl=0
char id=166 x=117 y=0 width=4 height=21 xoffset=0 yoffset=3 xadvance=5 page=0 chnl=0
char id=167 x=36 y=0 width=12 height=21 xoffset=-1 yoffset=3 xadvance=11 page=0 chnl=0
char id=168 x=240 y=147 width=8 height=4 xoffset=-1 yoffset=3 xadvance=7 page=0 chnl=0
char id=169 x=150 y=41 width=16 height=17 xoffset=-1 yoffset=3 xadvance=15 page=0 chnl=0
char id=170 x=103 y=144 width=9 height=9 xoffset=-1 yoffset=3 xadvance=7 page=0 chnl=0
char id=171 x=48 y=145 width=10 height=11 xoffset=0 yoffset=8 xadvance=11 page=0 chnl=0
char id=172 x=149 y=144 width=11 height=8 xoffset=0 yoffset=7 xadvance=12 page=0 chnl=0
char id=173 x=248 y=146 width=8 height=4 xoffset=-1 yoffset=11 xadvance=7 page=0 chnl=0
char id=174 x=167 y=42 width=16 height=17 xoffset=-1 yoffset=3 xadvance=15 page=0 chnl=0
char id=175 x=208 y=151 width=14 height=3 xoffset=-2 yoffset=1 xadvance=11 page=0 chnl=0
char id=176 x=180 y=144 width=7 height=7 xoffset=0 yoffset=3 xadvance=8 page=0 chnl=0
char id=177 x=214 y=130 width=12 height=14 xoffset=-1 yoffset=5 xadvance=11 page=0 chnl=0
char id=178 x=113 y=144 width=8 height=9 xoffset=-1 yoffset=3 xadvance=7 page=0 chnl=0
char id=179 x=94 y=143 width=8 height=10 xoffset=-1 yoffset=3 xadvance=7 page=0 chnl=0
char id=180 x=225 y=146 width=5 height=5 xoffset=1 yoffset=3 xadvance=7 page=0 chnl=0
char id=181 x=177 y=113 width=10 height=16 xoffset=0 yoffset=7 xadvance=12 page=0 chnl=0
char id=182 x=217 y=21 width=12 height=20 xoffset=-1 yoffset=3 xadvance=11 page=0 chnl=0
char id=183 x=238 y=152 width=4 height=4 xoffset=1 yoffset=9 xadvance=7 page=0 chnl=0
char id=184 x=188 y=144 width=6 height=7 xoffset=0 yoffset=17 xadvance=7 page=0 chnl=0
char id=185 x=131 y=144 width=5 height=9 xoffset=0 yoffset=3 xadvance=7 page=0 chnl=0
char id=186 x=122 y=144 width=8 height=9 xoffset=-1 yoffset=3 xadvance=7 page=0 chnl=0
char id=187 x=59 y=145 width=10 height=11 xoffset=0 yoffset=8 xadvance=11 page=0 chnl=0
char id=188 x=97 y=42 width=17 height=17 xoffset=0 yoffset=3 xadvance=17 page=0 chnl=0
char id=189 x=115 y=42 width=17 height=17 xoffset=0 yoffset=3 xadvance=17 page=0 chnl=0
char id=190 x=60 y=42 width=18 height=17 xoffset=-1 yoffset=3 xadvance=17 page=0 chnl=0
char id=191 x=152 y=77 width=11 height=17 xoffset=0 yoffset=7 xadvance=12 page=0 chnl=0
char id=192 x=162 y=21 width=16 height=19 xoffset=-2 yoffset=0 xadvance=13 page=0 chnl=0
char id=193 x=145 y=21 width=16 height=19 xoffset=-2 yoffset=0 xadvance=13 page=0 chnl=0
char id=194 x=128 y=21 width=16 height=19 xoffset=-2 yoffset=0 xadvance=13 page=0 chnl=0
char id=195 x=111 y=22 width=16 height=19 xoffset=-2 yoffset=0 xadvance=13 page=0 chnl=0
char id=196 x=94 y=22 width=16 height=19 xoffset=-2 yoffset=0 xadvance=13 page=0 chnl=0
char id=197 x=77 y=22 width=16 height=19 xoffset=-2 yoffset=0 xadvance=13 page=0 chnl=0
char id=198 x=236 y=95 width=20 height=16 xoffset=-1 yoffset=3 xadvance=20 page=0 chnl=0
char id=199 x=21 y=0 width=14 height=21 xoffset=0 yoffset=3 xadvance=14 page=0 chnl=0
char id=200 x=47 y=22 width=13 height=19 xoffset=0 yoffset=0 xadvance=13 page=0 chnl=0
char id=201 x=33 y=22 width=13 height=19 xoffset=0 yoffset=0 xadvance=13 page=0 chnl=0
char id=202 x=19 y=22 width=13 height=19 xoffset=0 yoffset=0 xadvance=13 page=0 chnl=0
char id=203 x=5 y=22 width=13 height=19 xoffset=0 yoffset=0 xadvance=13 page=0 chnl=0
char id=204 x=31 y=42 width=5 height=19 xoffset=-1 yoffset=0 xadvance=6 page=0 chnl=0
char id=205 x=37 y=42 width=5 height=19 xoffset=0 yoffset=0 xadvance=6 page=0 chnl=0
char id=206 x=14 y=42 width=8 height=19 xoffset=-2 yoffset=0 xadvance=6 page=0 chnl=0
char id=207 x=23 y=42 width=7 height=19 xoffset=-1 yoffset=0 xadvance=6 page=0 chnl=0
char id=208 x=185 y=96 width=16 height=16 xoffset=-2 yoffset=3 xadvance=14 page=0 chnl=0
char id=209 x=0 y=42 width=13 height=19 xoffset=0 yoffset=0 xadvance=14 page=0 chnl=0
char id=210 x=122 y=0 width=16 height=20 xoffset=-1 yoffset=0 xadvance=16 page=0 chnl=0
char id=211 x=139 y=0 width=16 height=20 xoffset=-1 yoffset=0 xadvance=16 page=0 chnl=0
char id=212 x=156 y=0 width=16 height=20 xoffset=-1 yoffset=0 xadvance=16 page=0 chnl=0
char id=213 x=173 y=0 width=16 height=20 xoffset=-1 yoffset=0 xadvance=16 page=0 chnl=0
char id=214 x=190 y=0 width=16 height=20 xoffset=-1 yoffset=0 xadvance=16 page=0 chnl=0
char id=215 x=36 y=145 width=11 height=11 xoffset=0 yoffset=6 xadvance=12 page=0 chnl=0
char id=216 x=184 y=42 width=16 height=17 xoffset=-1 yoffset=3 xadvance=16 page=0 chnl=0
char id=217 x=207 y=0 width=13 height=20 xoffset=0 yoffset=0 xadvance=14 page=0 chnl=0
char id=218 x=221 y=0 width=13 height=20 xoffset=0 yoffset=0 xadvance=14 page=0 chnl=0
char id=219 x=235 y=0 width=13 height=20 xoffset=0 yoffset=0 xadvance=14 page=0 chnl=0
char id=220 x=243 y=21 width=13 height=20 xoffset=0 yoffset=0 xadvance=14 page=0 chnl=0
char id=221 x=61 y=22 width=15 height=19 xoffset=-1 yoffset=0 xadvance=13 page=0 chnl=0
char id=222 x=28 y=115 width=13 height=16 xoffset=0 yoffset=3 xadvance=13 page=0 chnl=0
char id=223 x=111 y=60 width=12 height=17 xoffset=0 yoffset=3 xadvance=12 page=0 chnl=0
char id=224 x=98 y=60 width=12 height=17 xoffset=-1 yoffset=3 xadvance=11 page=0 chnl=0
char id=225 x=85 y=60 width=12 height=17 xoffset=-1 yoffset=3 xadvance=11 page=0 chnl=0
char id=226 x=72 y=60 width=12 height=17 xoffset=-1 yoffset=3 xadvance=11 page=0 chnl=0
char id=227 x=59 y=60 width=12 height=17 xoffset=-1 yoffset=3 xadvance=11 page=0 chnl=0
char id=228 x=46 y=61 width=12 height=17 xoffset=-1 yoffset=3 xadvance=11 page=0 chnl=0
char id=229 x=33 y=62 width=12 height=17 xoffset=-1 yoffset=3 xadvance=11 page=0 chnl=0
char id=230 x=183 y=130 width=18 height=13 xoffset=-1 yoffset=7 xadvance=18 page=0 chnl=0
char id=231 x=143 y=113 width=11 height=16 xoffset=-1 yoffset=7 xadvance=10 page=0 chnl=0
char id=232 x=20 y=62 width=12 height=17 xoffset=-1 yoffset=3 xadvance=11 page=0 chnl=0
char id=233 x=7 y=62 width=12 height=17 xoffset=-1 yoffset=3 xadvance=11 page=0 chnl=0
char id=234 x=0 y=80 width=12 height=17 xoffset=-1 yoffset=3 xadvance=11 page=0 chnl=0
char id=235 x=13 y=80 width=12 height=17 xoffset=-1 yoffset=3 xadvance=11 page=0 chnl=0
char id=236 x=241 y=112 width=6 height=16 xoffset=-1 yoffset=3 xadvance=6 page=0 chnl=0
char id=237 x=248 y=112 width=6 height=16 xoffset=0 yoffset=3 xadvance=6 page=0 chnl=0
char id=238 x=208 y=113 width=8 height=16 xoffset=-2 yoffset=3 xadvance=6 page=0 chnl=0
char id=239 x=233 y=113 width=7 height=16 xoffset=-1 yoffset=3 xadvance=6 page=0 chnl=0
char id=240 x=26 y=80 width=12 height=17 xoffset=-1 yoffset=3 xadvance=11 page=0 chnl=0
char id=241 x=188 y=113 width=10 height=16 xoffset=0 yoffset=3 xadvance=11 page=0 chnl=0
char id=242 x=39 y=80 width=12 height=17 xoffset=-1 yoffset=3 xadvance=11 page=0 chnl=0
char id=243 x=52 y=79 width=12 height=17 xoffset=-1 yoffset=3 xadvance=11 page=0 chnl=0
char id=244 x=65 y=78 width=12 height=17 xoffset=-1 yoffset=3 xadvance=11 page=0 chnl=0
char id=245 x=78 y=78 width=12 height=17 xoffset=-1 yoffset=3 xadvance=11 page=0 chnl=0
char id=246 x=91 y=78 width=12 height=17 xoffset=-1 yoffset=3 xadvance=11 page=0 chnl=0
char id=247 x=70 y=145 width=12 height=10 xoffset=-1 yoffset=6 xadvance=11 page=0 chnl=0
char id=248 x=202 y=130 width=11 height=14 xoffset=0 yoffset=6 xadvance=12 page=0 chnl=0
char id=249 x=175 y=78 width=10 height=17 xoffset=0 yoffset=3 xadvance=11 page=0 chnl=0
char id=250 x=186 y=78 width=10 height=17 xoffset=0 yoffset=3 xadvance=11 page=0 chnl=0
char id=251 x=197 y=78 width=10 height=17 xoffset=0 yoffset=3 xadvance=11 page=0 chnl=0
char id=252 x=208 y=78 width=10 height=17 xoffset=0 yoffset=3 xadvance=11 page=0 chnl=0
char id=253 x=49 y=0 width=11 height=21 xoffset=-1 yoffset=3 xadvance=10 page=0 chnl=0
char id=254 x=193 y=21 width=11 height=20 xoffset=0 yoffset=3 xadvance=11 page=0 chnl=0
char id=255 x=61 y=0 width=11 height=21 xoffset=-1 yoffset=3 xadvance=10 page=0 chnl=0
kernings count=79
kerning first=32 second=65 amount=-1
kerning first=160 second=65 amount=-1
kerning first=49 second=49 amount=-1
kerning first=65 second=32 amount=-1
kerning first=65 second=160 amount=-1
kerning first=65 second=84 amount=-1
kerning first=65 second=86 amount=-1
kerning first=65 second=87 amount=-1
kerning first=65 second=89 amount=-1
kerning first=70 second=44 amount=-2
kerning first=70 second=46 amount=-2
kerning first=70 second=65 amount=-1
kerning first=76 second=32 amount=-1
kerning first=76 second=160 amount=-1
kerning first=76 second=84 amount=-1
kerning first=76 second=86 amount=-1
kerning first=76 second=87 amount=-1
kerning first=76 second=89 amount=-1
kerning first=76 second=121 amount=-1
kerning first=80 second=44 amount=-3
kerning first=80 second=46 amount=-3
kerning first=80 second=65 amount=-1
kerning first=84 second=44 amount=-2
kerning first=84 second=45 amount=-1
kerning first=84 second=173 amount=-1
kerning first=84 second=46 amount=-2
kerning first=84 second=58 amount=-2
kerning first=84 second=59 amount=-2
kerning first=84 second=65 amount=-1
kerning first=84 second=97 amount=-2
kerning first=84 second=99 amount=-2
kerning first=84 second=101 amount=-2
kerning first=84 second=105 amount=-1
kerning first=84 second=111 amount=-2
kerning first=84 second=114 amount=-1
kerning first=84 second=115 amount=-2
kerning first=84 second=117 amount=-1
kerning first=84 second=119 amount=-1
kerning first=84 second=121 amount=-1
kerning first=86 second=44 amount=-2
kerning first=86 second=45 amount=-1
kerning first=86 second=173 amount=-1
kerning first=86 second=46 amount=-2
kerning first=86 second=58 amount=-1
kerning first=86 second=59 amount=-1
kerning first=86 second=65 amount=-1
kerning first=86 second=97 amount=-1
kerning first=86 second=101 amount=-1
kerning first=86 second=111 amount=-1
kerning first=86 second=114 amount=-1
kerning first=86 second=117 amount=-1
kerning first=86 second=121 amount=-1
kerning first=87 second=44 amount=-1
kerning first=87 second=46 amount=-1
kerning first=87 second=65 amount=-1
kerning first=87 second=97 amount=-1
kerning first=89 second=44 amount=-3
kerning first=89 second=45 amount=-2
kerning first=89 second=173 amount=-2
kerning first=89 second=46 amount=-3
kerning first=89 second=58 amount=-1
kerning first=89 second=59 amount=-1
kerning first=89 second=65 amount=-1
kerning first=89 second=97 amount=-1
kerning first=89 second=101 amount=-2
kerning first=89 second=105 amount=-1
kerning first=89 second=111 amount=-2
kerning first=89 second=112 amount=-1
kerning first=89 second=113 amount=-2
kerning first=89 second=117 amount=-1
kerning first=89 second=118 amount=-1
kerning first=114 second=44 amount=-1
kerning first=114 second=46 amount=-1
kerning first=118 second=44 amount=-1
kerning first=118 second=46 amount=-1
kerning first=119 second=44 amount=-1
kerning first=119 second=46 amount=-1
kerning first=121 second=44 amount=-1
kerning first=121 second=46 amount=-1
