g g0
v -5 20 -5
v 5 20 -5
v 5 20 5
v -5 20 5
v -5 10 5
v 5 10 5
v 5 10 -5
v -5 10 -5
vn 0 1 0
vn 0 1 0
vn 0 1 0
vn 0 1 0
vn 0 0 1
vn 0 0 1
vn 0 0 1
vn 0 0 1
vn 0 0 -1
vn 0 0 -1
vn 0 0 -1
vn 0 0 -1
vn -1 0 0
vn -1 0 0
vn -1 0 0
vn -1 0 0
vn 1 0 0
vn 1 0 0
vn 1 0 0
vn 1 0 0
vt 0 0
vt 1 0
vt 1 1
vt 0 1
vt 0 1
vt 0 0
vt 1 0
vt 1 1
vt 1 1
vt 1 0
vt 0 0
vt 0 1
vt 0 1
vt 0 0
vt 1 0
vt 1 1
vt 1 1
vt 1 0
vt 0 0
vt 0 1
usemtl acmat_0
f 1/1/1 4/2/2 3/3/3 2/4/4
f 4/5/5 5/6/6 6/7/7 3/8/8
f 2/9/9 7/10/10 8/11/11 1/12/12
f 1/13/13 8/14/14 5/15/15 4/16/16
f 3/17/17 6/18/18 7/19/19 2/20/20
